sgsss_decomp – Standardization and decomposition: A conceptual introduction
…
Now we have an ‘individual’ level dataset for our reconviction cohorts we can resample from them with replacement

We use functions from the {rsample} package to do this in a memory efficient way

Because bootstrapping uses random number generation we need to set the seed before starting so our results are reproducible

We also need to set the number of draws. We’ll use 200 for speed; but more is always better

Boostrapping: 2. Resampling

We now have 200 of… something

# Bootstrap sampling 
# A tibble: 200 × 2
   splits                id          
   <list>                <chr>       
 1 <split [89957/32972]> Bootstrap001
 2 <split [89957/32992]> Bootstrap002
 3 <split [89957/33239]> Bootstrap003
 4 <split [89957/33113]> Bootstrap004
 5 <split [89957/32932]> Bootstrap005
 6 <split [89957/33149]> Bootstrap006
 7 <split [89957/33307]> Bootstrap007
 8 <split [89957/33076]> Bootstrap008
 9 <split [89957/32863]> Bootstrap009
10 <split [89957/33139]> Bootstrap010
# ℹ 190 more rows
…
We use the map function from the {purrr} package

Jenny Bryan has written the definitive guide to iteration with {purrr}

The basic intuition is each bootstrap draw is a row of our draws_2004_2016 dataframe, and we want to aggregate each one

In other words, we want to map the aggregation to each of the bootstrap draws

Bootstrapping: 3. Aggregating

Bootstrapping: 3. Aggregating

# Bootstrap sampling 
# A tibble: 200 × 3
   splits                id           agg_data           
   <list>                <chr>        <list>             
 1 <split [89957/32972]> Bootstrap001 <gropd_df [20 × 7]>
 2 <split [89957/32992]> Bootstrap002 <gropd_df [20 × 7]>
 3 <split [89957/33239]> Bootstrap003 <gropd_df [20 × 7]>
 4 <split [89957/33113]> Bootstrap004 <gropd_df [20 × 7]>
 5 <split [89957/32932]> Bootstrap005 <gropd_df [20 × 7]>
 6 <split [89957/33149]> Bootstrap006 <gropd_df [20 × 7]>
 7 <split [89957/33307]> Bootstrap007 <gropd_df [20 × 7]>
 8 <split [89957/33076]> Bootstrap008 <gropd_df [20 × 7]>
 9 <split [89957/32863]> Bootstrap009 <gropd_df [20 × 7]>
10 <split [89957/33139]> Bootstrap010 <gropd_df [20 × 7]>
# ℹ 190 more rows
…
